MBON Zooplankton Quick Visual – SEUS MBON Zooplankton Microscopy Analyses
…
2.0 —- Setup —-

2.1 Load Libraries

3.0 Load Dataset

load file

dat <- 
  here("data", "zoo_data_pre_obis_merg.csv") %>%
  read_csv(show_col_types = FALSE) %T>% 
  print()

# A tibble: 2,297 × 74
   file_metadata    cruise_id station site   mesh date_time           date      
   <chr>            <chr>     <chr>   <chr> <dbl> <dttm>              <date>    
 1 fknms_sample_lo… WS17170   Molass… MR      500 2017-06-19 00:21:00 2017-06-19
 2 fknms_sample_lo… WS17170   Molass… MR      500 2017-06-19 00:21:00 2017-06-19
 3 fknms_sample_lo… WS17170   Molass… MR      500 2017-06-19 00:21:00 2017-06-19
 4 fknms_sample_lo… WS17170   Molass… MR      500 2017-06-19 00:21:00 2017-06-19
 5 fknms_sample_lo… WS17170   Molass… MR      500 2017-06-19 00:21:00 2017-06-19
 6 fknms_sample_lo… WS17170   Molass… MR      500 2017-06-19 00:21:00 2017-06-19
 7 fknms_sample_lo… WS17170   Molass… MR      500 2017-06-19 00:21:00 2017-06-19
 8 fknms_sample_lo… WS17170   Molass… MR      500 2017-06-19 00:21:00 2017-06-19
 9 fknms_sample_lo… WS17170   Molass… MR      500 2017-06-19 00:21:00 2017-06-19
10 fknms_sample_lo… WS17170   Molass… MR      500 2017-06-19 00:21:00 2017-06-19
# ℹ 2,287 more rows
# ℹ 67 more variables: time_gmt <time>, lat_in <dbl>, lon_in <dbl>,
#   coordinateUncertaintyInMeters <dbl>, minimumDepthInMeters <dbl>,
#   maximumDepthInMeters <dbl>, flowmeter_in <dbl>, flowmeter_out <dbl>,
#   flowmeter_diff <dbl>, ship_speed_knots <dbl>, inpeller_constant <dbl>,
#   split_size <dbl>, notes <chr>, tow_time_min <dbl>, net_size <dbl>,
#   net_area <dbl>, distance_m <dbl>, tow_speed_m_sec <dbl>, …
…
    date_time, date, time_gmt,
    lat_in, lon_in,
    maximumDepthInMeters,
    volume_filt_cubic_m,
    taxa, scientificname, lifeStage, ind_m3, number_ind_sample,
    kingdom:genus
  ) %>%
  mutate(
    .after     = date,
    year       = year(date_time), 
    date_month = ym(format(date, "%Y-%m"))
    ) %T>% 
  print()

# A tibble: 2,178 × 24
   cruise_id station site   mesh date_time           date        year date_month
   <chr>     <chr>   <chr> <dbl> <dttm>              <date>     <dbl> <date>    
 1 WS17170   Molass… MR      500 2017-06-19 00:21:00 2017-06-19  2017 2017-06-01
 2 WS17170   Molass… MR      500 2017-06-19 00:21:00 2017-06-19  2017 2017-06-01
 3 WS17170   Molass… MR      500 2017-06-19 00:21:00 2017-06-19  2017 2017-06-01
 4 WS17170   Molass… MR      500 2017-06-19 00:21:00 2017-06-19  2017 2017-06-01
 5 WS17170   Molass… MR      500 2017-06-19 00:21:00 2017-06-19  2017 2017-06-01
 6 WS17170   Molass… MR      500 2017-06-19 00:21:00 2017-06-19  2017 2017-06-01
 7 WS17170   Molass… MR      500 2017-06-19 00:21:00 2017-06-19  2017 2017-06-01
 8 WS17170   Molass… MR      500 2017-06-19 00:21:00 2017-06-19  2017 2017-06-01
 9 WS17170   Molass… MR      500 2017-06-19 00:21:00 2017-06-19  2017 2017-06-01
10 WS17170   Molass… MR      500 2017-06-19 00:21:00 2017-06-19  2017 2017-06-01
# ℹ 2,168 more rows
# ℹ 16 more variables: time_gmt <time>, lat_in <dbl>, lon_in <dbl>,
#   maximumDepthInMeters <dbl>, volume_filt_cubic_m <dbl>, taxa <chr>,
#   scientificname <chr>, lifeStage <chr>, ind_m3 <dbl>,
#   number_ind_sample <dbl>, kingdom <chr>, phylum <chr>, class <chr>,
#   order <chr>, family <chr>, genus <chr>
…
Code

count(dat_nest, station, site, mesh, date_month)

# A tibble: 83 × 5
   station         site   mesh date_month     n
   <chr>           <chr> <dbl> <date>     <int>
 1 Looe Key (deep) LK       64 2019-01-01     1
 2 Looe Key (deep) LK       64 2020-01-01     1
 3 Looe Key (deep) LK      200 2017-06-01     1
 4 Looe Key (deep) LK      200 2018-01-01     1
 5 Looe Key (deep) LK      200 2018-03-01     1
 6 Looe Key (deep) LK      200 2018-06-01     1
 7 Looe Key (deep) LK      200 2018-08-01     1
 8 Looe Key (deep) LK      200 2018-10-01     1
 9 Looe Key (deep) LK      200 2018-12-01     1
10 Looe Key (deep) LK      200 2019-01-01     1
# ℹ 73 more rows
…
        # loop through all names to select the lowest name
        for (i in seq(length(dat))) {
          if (is.na(taxa_name)) {
            taxa_name <- dat[i]
          } else {
            taxa_name
          }
        }
        return(taxa_name)
      }
    ),
  ) %T>%
  print() 

# A tibble: 268 × 25
   cruise_id station site   mesh date_time           date        year date_month
   <chr>     <chr>   <chr> <dbl> <dttm>              <date>     <dbl> <date>    
 1 WS17170   Wester… WS      200 2017-06-20 19:17:00 2017-06-20  2017 2017-06-01
 2 WS17170   Wester… WS      200 2017-06-20 19:17:00 2017-06-20  2017 2017-06-01
 3 WS17170   Wester… WS      200 2017-06-20 19:17:00 2017-06-20  2017 2017-06-01
 4 WS17170   Wester… WS      200 2017-06-20 19:17:00 2017-06-20  2017 2017-06-01
 5 WS17170   Wester… WS      200 2017-06-20 19:17:00 2017-06-20  2017 2017-06-01
 6 WS17170   Wester… WS      200 2017-06-20 19:17:00 2017-06-20  2017 2017-06-01
 7 WS17170   Wester… WS      200 2017-06-20 19:17:00 2017-06-20  2017 2017-06-01
 8 WS17170   Wester… WS      200 2017-06-20 19:17:00 2017-06-20  2017 2017-06-01
 9 WS17170   Wester… WS      200 2017-06-20 19:17:00 2017-06-20  2017 2017-06-01
10 WS17170   Wester… WS      200 2017-06-20 19:17:00 2017-06-20  2017 2017-06-01
# ℹ 258 more rows
# ℹ 17 more variables: time_gmt <time>, lat_in <dbl>, lon_in <dbl>,
#   maximumDepthInMeters <dbl>, volume_filt_cubic_m <dbl>, taxa <chr>,
#   scientificname <chr>, lifeStage <chr>, ind_m3 <dbl>,
#   number_ind_sample <dbl>, kingdom <chr>, phylum <chr>, class <chr>,
#   order <chr>, family <chr>, genus <chr>, taxa_level <chr>
…
        # loop through all names to select the lowest name
        for (i in seq(length(dat))) {
          if (is.na(taxa_name)) {
            taxa_name <- dat[i]
          } else {
            taxa_name
          }
        }
        return(taxa_name)
      }
    ),
  ) %T>%
  print() 

# A tibble: 819 × 25
   cruise_id station site   mesh date_time           date        year date_month
   <chr>     <fct>   <fct> <dbl> <dttm>              <date>     <dbl> <date>    
 1 WS17170   Looe K… LK      200 2017-06-20 15:33:00 2017-06-20  2017 2017-06-01
 2 WS17170   Looe K… LK      200 2017-06-20 15:33:00 2017-06-20  2017 2017-06-01
 3 WS17170   Looe K… LK      200 2017-06-20 15:33:00 2017-06-20  2017 2017-06-01
 4 WS17170   Looe K… LK      200 2017-06-20 15:33:00 2017-06-20  2017 2017-06-01
 5 WS17170   Looe K… LK      200 2017-06-20 15:33:00 2017-06-20  2017 2017-06-01
 6 WS17170   Looe K… LK      200 2017-06-20 15:33:00 2017-06-20  2017 2017-06-01
 7 WS17170   Looe K… LK      200 2017-06-20 15:33:00 2017-06-20  2017 2017-06-01
 8 WS17170   Looe K… LK      200 2017-06-20 15:33:00 2017-06-20  2017 2017-06-01
 9 WS17170   Looe K… LK      200 2017-06-20 15:33:00 2017-06-20  2017 2017-06-01
10 WS17170   Looe K… LK      200 2017-06-20 15:33:00 2017-06-20  2017 2017-06-01
# ℹ 809 more rows
# ℹ 17 more variables: time_gmt <time>, lat_in <dbl>, lon_in <dbl>,
#   maximumDepthInMeters <dbl>, volume_filt_cubic_m <dbl>, taxa <chr>,
#   scientificname <chr>, lifeStage <chr>, ind_m3 <dbl>,
#   number_ind_sample <dbl>, kingdom <chr>, phylum <chr>, class <chr>,
#   order <chr>, family <chr>, genus <chr>, taxa_level <chr>
…
        # loop through all names to select the lowest name
        for (i in seq(length(dat))) {
          if (is.na(taxa_name)) {
            taxa_name <- dat[i]
          } else {
            taxa_name
          }
        }
        return(taxa_name)
      }
    ),
  ) %T>%
  print() 

# A tibble: 790 × 25
   cruise_id station site   mesh date_time           date        year date_month
   <chr>     <fct>   <fct> <dbl> <dttm>              <date>     <dbl> <date>    
 1 WS17170   Molass… MR      500 2017-06-19 00:21:00 2017-06-19  2017 2017-06-01
 2 WS17170   Molass… MR      500 2017-06-19 00:21:00 2017-06-19  2017 2017-06-01
 3 WS17170   Molass… MR      500 2017-06-19 00:21:00 2017-06-19  2017 2017-06-01
 4 WS17170   Molass… MR      500 2017-06-19 00:21:00 2017-06-19  2017 2017-06-01
 5 WS17170   Molass… MR      500 2017-06-19 00:21:00 2017-06-19  2017 2017-06-01
 6 WS17170   Molass… MR      500 2017-06-19 00:21:00 2017-06-19  2017 2017-06-01
 7 WS17170   Molass… MR      500 2017-06-19 00:21:00 2017-06-19  2017 2017-06-01
 8 WS17170   Molass… MR      500 2017-06-19 00:21:00 2017-06-19  2017 2017-06-01
 9 WS17170   Molass… MR      500 2017-06-19 00:21:00 2017-06-19  2017 2017-06-01
10 WS17170   Molass… MR      500 2017-06-19 00:21:00 2017-06-19  2017 2017-06-01
# ℹ 780 more rows
# ℹ 17 more variables: time_gmt <time>, lat_in <dbl>, lon_in <dbl>,
#   maximumDepthInMeters <dbl>, volume_filt_cubic_m <dbl>, taxa <chr>,
#   scientificname <chr>, lifeStage <chr>, ind_m3 <dbl>,
#   number_ind_sample <dbl>, kingdom <chr>, phylum <chr>, class <chr>,
#   order <chr>, family <chr>, genus <chr>, taxa_level <chr>
…
        # loop through all names to select the lowest name
        for (i in seq(length(dat))) {
          if (is.na(taxa_name)) {
            taxa_name <- dat[i]
          } else {
            taxa_name
          }
        }
        return(taxa_name)
      }
    ),
  ) %T>%
  print() 

# A tibble: 1,609 × 25
   cruise_id station site   mesh date_time           date        year date_month
   <chr>     <fct>   <fct> <dbl> <dttm>              <date>     <dbl> <date>    
 1 WS17170   Molass… MR      500 2017-06-19 00:21:00 2017-06-19  2017 2017-06-01
 2 WS17170   Molass… MR      500 2017-06-19 00:21:00 2017-06-19  2017 2017-06-01
 3 WS17170   Molass… MR      500 2017-06-19 00:21:00 2017-06-19  2017 2017-06-01
 4 WS17170   Molass… MR      500 2017-06-19 00:21:00 2017-06-19  2017 2017-06-01
 5 WS17170   Molass… MR      500 2017-06-19 00:21:00 2017-06-19  2017 2017-06-01
 6 WS17170   Molass… MR      500 2017-06-19 00:21:00 2017-06-19  2017 2017-06-01
 7 WS17170   Molass… MR      500 2017-06-19 00:21:00 2017-06-19  2017 2017-06-01
 8 WS17170   Molass… MR      500 2017-06-19 00:21:00 2017-06-19  2017 2017-06-01
 9 WS17170   Molass… MR      500 2017-06-19 00:21:00 2017-06-19  2017 2017-06-01
10 WS17170   Molass… MR      500 2017-06-19 00:21:00 2017-06-19  2017 2017-06-01
# ℹ 1,599 more rows
# ℹ 17 more variables: time_gmt <time>, lat_in <dbl>, lon_in <dbl>,
#   maximumDepthInMeters <dbl>, volume_filt_cubic_m <dbl>, taxa <chr>,
#   scientificname <chr>, lifeStage <chr>, ind_m3 <dbl>,
#   number_ind_sample <dbl>, kingdom <chr>, phylum <chr>, class <chr>,
#   order <chr>, family <chr>, genus <chr>, taxa_level <chr>
…
